^C:\USERS\USER\DESKTOP\NOAMAREV_HW9\NOAMAREV_HW12\EX2\DEBUG\MAIN.OBJ
C:\USERS\USER\DESKTOP\NOAMAREV_HW9\NOAMAREV_HW12\DEBUG\EX2.EXE
C:\USERS\USER\DESKTOP\NOAMAREV_HW9\NOAMAREV_HW12\DEBUG\EX2.ILK
C:\USERS\USER\DESKTOP\NOAMAREV_HW9\NOAMAREV_HW12\DEBUG\EX2.PDB
